(kicad_sch (version 20211123) (generator eeschema)

  (uuid 0910cb2b-5973-4d8a-ae14-7a1f346a65e3)

  (paper "A4")

  (title_block
    (title "Microcontoller interfaces")
    (date "2022-04-22")
    (rev "v1")
    (company "Author: Karan Abraham")
  )

  (lib_symbols
    (symbol "Connector:TestPoint" (pin_numbers hide) (pin_names (offset 0.762) hide) (in_bom yes) (on_board yes)
      (property "Reference" "TP" (id 0) (at 0 6.858 0)
        (effects (font (size 1.27 1.27)))
      )
      (property "Value" "TestPoint" (id 1) (at 0 5.08 0)
        (effects (font (size 1.27 1.27)))
      )
      (property "Footprint" "" (id 2) (at 5.08 0 0)
        (effects (font (size 1.27 1.27)) hide)
      )
      (property "Datasheet" "~" (id 3) (at 5.08 0 0)
        (effects (font (size 1.27 1.27)) hide)
      )
      (property "ki_keywords" "test point tp" (id 4) (at 0 0 0)
        (effects (font (size 1.27 1.27)) hide)
      )
      (property "ki_description" "test point" (id 5) (at 0 0 0)
        (effects (font (size 1.27 1.27)) hide)
      )
      (property "ki_fp_filters" "Pin* Test*" (id 6) (at 0 0 0)
        (effects (font (size 1.27 1.27)) hide)
      )
      (symbol "TestPoint_0_1"
        (circle (center 0 3.302) (radius 0.762)
          (stroke (width 0) (type default) (color 0 0 0 0))
          (fill (type none))
        )
      )
      (symbol "TestPoint_1_1"
        (pin passive line (at 0 0 90) (length 2.54)
          (name "1" (effects (font (size 1.27 1.27))))
          (number "1" (effects (font (size 1.27 1.27))))
        )
      )
    )
    (symbol "Connector:USB_B_Micro" (pin_names (offset 1.016)) (in_bom yes) (on_board yes)
      (property "Reference" "J" (id 0) (at -5.08 11.43 0)
        (effects (font (size 1.27 1.27)) (justify left))
      )
      (property "Value" "USB_B_Micro" (id 1) (at -5.08 8.89 0)
        (effects (font (size 1.27 1.27)) (justify left))
      )
      (property "Footprint" "" (id 2) (at 3.81 -1.27 0)
        (effects (font (size 1.27 1.27)) hide)
      )
      (property "Datasheet" "~" (id 3) (at 3.81 -1.27 0)
        (effects (font (size 1.27 1.27)) hide)
      )
      (property "ki_keywords" "connector USB micro" (id 4) (at 0 0 0)
        (effects (font (size 1.27 1.27)) hide)
      )
      (property "ki_description" "USB Micro Type B connector" (id 5) (at 0 0 0)
        (effects (font (size 1.27 1.27)) hide)
      )
      (property "ki_fp_filters" "USB*" (id 6) (at 0 0 0)
        (effects (font (size 1.27 1.27)) hide)
      )
      (symbol "USB_B_Micro_0_1"
        (rectangle (start -5.08 -7.62) (end 5.08 7.62)
          (stroke (width 0.254) (type default) (color 0 0 0 0))
          (fill (type background))
        )
        (circle (center -3.81 2.159) (radius 0.635)
          (stroke (width 0.254) (type default) (color 0 0 0 0))
          (fill (type outline))
        )
        (circle (center -0.635 3.429) (radius 0.381)
          (stroke (width 0.254) (type default) (color 0 0 0 0))
          (fill (type outline))
        )
        (rectangle (start -0.127 -7.62) (end 0.127 -6.858)
          (stroke (width 0) (type default) (color 0 0 0 0))
          (fill (type none))
        )
        (polyline
          (pts
            (xy -1.905 2.159)
            (xy 0.635 2.159)
          )
          (stroke (width 0.254) (type default) (color 0 0 0 0))
          (fill (type none))
        )
        (polyline
          (pts
            (xy -3.175 2.159)
            (xy -2.54 2.159)
            (xy -1.27 3.429)
            (xy -0.635 3.429)
          )
          (stroke (width 0.254) (type default) (color 0 0 0 0))
          (fill (type none))
        )
        (polyline
          (pts
            (xy -2.54 2.159)
            (xy -1.905 2.159)
            (xy -1.27 0.889)
            (xy 0 0.889)
          )
          (stroke (width 0.254) (type default) (color 0 0 0 0))
          (fill (type none))
        )
        (polyline
          (pts
            (xy 0.635 2.794)
            (xy 0.635 1.524)
            (xy 1.905 2.159)
            (xy 0.635 2.794)
          )
          (stroke (width 0.254) (type default) (color 0 0 0 0))
          (fill (type outline))
        )
        (polyline
          (pts
            (xy -4.318 5.588)
            (xy -1.778 5.588)
            (xy -2.032 4.826)
            (xy -4.064 4.826)
            (xy -4.318 5.588)
          )
          (stroke (width 0) (type default) (color 0 0 0 0))
          (fill (type outline))
        )
        (polyline
          (pts
            (xy -4.699 5.842)
            (xy -4.699 5.588)
            (xy -4.445 4.826)
            (xy -4.445 4.572)
            (xy -1.651 4.572)
            (xy -1.651 4.826)
            (xy -1.397 5.588)
            (xy -1.397 5.842)
            (xy -4.699 5.842)
          )
          (stroke (width 0) (type default) (color 0 0 0 0))
          (fill (type none))
        )
        (rectangle (start 0.254 1.27) (end -0.508 0.508)
          (stroke (width 0.254) (type default) (color 0 0 0 0))
          (fill (type outline))
        )
        (rectangle (start 5.08 -5.207) (end 4.318 -4.953)
          (stroke (width 0) (type default) (color 0 0 0 0))
          (fill (type none))
        )
        (rectangle (start 5.08 -2.667) (end 4.318 -2.413)
          (stroke (width 0) (type default) (color 0 0 0 0))
          (fill (type none))
        )
        (rectangle (start 5.08 -0.127) (end 4.318 0.127)
          (stroke (width 0) (type default) (color 0 0 0 0))
          (fill (type none))
        )
        (rectangle (start 5.08 4.953) (end 4.318 5.207)
          (stroke (width 0) (type default) (color 0 0 0 0))
          (fill (type none))
        )
      )
      (symbol "USB_B_Micro_1_1"
        (pin power_out line (at 7.62 5.08 180) (length 2.54)
          (name "VBUS" (effects (font (size 1.27 1.27))))
          (number "1" (effects (font (size 1.27 1.27))))
        )
        (pin bidirectional line (at 7.62 -2.54 180) (length 2.54)
          (name "D-" (effects (font (size 1.27 1.27))))
          (number "2" (effects (font (size 1.27 1.27))))
        )
        (pin bidirectional line (at 7.62 0 180) (length 2.54)
          (name "D+" (effects (font (size 1.27 1.27))))
          (number "3" (effects (font (size 1.27 1.27))))
        )
        (pin passive line (at 7.62 -5.08 180) (length 2.54)
          (name "ID" (effects (font (size 1.27 1.27))))
          (number "4" (effects (font (size 1.27 1.27))))
        )
        (pin power_out line (at 0 -10.16 90) (length 2.54)
          (name "GND" (effects (font (size 1.27 1.27))))
          (number "5" (effects (font (size 1.27 1.27))))
        )
        (pin passive line (at -2.54 -10.16 90) (length 2.54)
          (name "Shield" (effects (font (size 1.27 1.27))))
          (number "6" (effects (font (size 1.27 1.27))))
        )
      )
    )
    (symbol "Device:C" (pin_numbers hide) (pin_names (offset 0.254)) (in_bom yes) (on_board yes)
      (property "Reference" "C" (id 0) (at 0.635 2.54 0)
        (effects (font (size 1.27 1.27)) (justify left))
      )
      (property "Value" "C" (id 1) (at 0.635 -2.54 0)
        (effects (font (size 1.27 1.27)) (justify left))
      )
      (property "Footprint" "" (id 2) (at 0.9652 -3.81 0)
        (effects (font (size 1.27 1.27)) hide)
      )
      (property "Datasheet" "~" (id 3) (at 0 0 0)
        (effects (font (size 1.27 1.27)) hide)
      )
      (property "ki_keywords" "cap capacitor" (id 4) (at 0 0 0)
        (effects (font (size 1.27 1.27)) hide)
      )
      (property "ki_description" "Unpolarized capacitor" (id 5) (at 0 0 0)
        (effects (font (size 1.27 1.27)) hide)
      )
      (property "ki_fp_filters" "C_*" (id 6) (at 0 0 0)
        (effects (font (size 1.27 1.27)) hide)
      )
      (symbol "C_0_1"
        (polyline
          (pts
            (xy -2.032 -0.762)
            (xy 2.032 -0.762)
          )
          (stroke (width 0.508) (type default) (color 0 0 0 0))
          (fill (type none))
        )
        (polyline
          (pts
            (xy -2.032 0.762)
            (xy 2.032 0.762)
          )
          (stroke (width 0.508) (type default) (color 0 0 0 0))
          (fill (type none))
        )
      )
      (symbol "C_1_1"
        (pin passive line (at 0 3.81 270) (length 2.794)
          (name "~" (effects (font (size 1.27 1.27))))
          (number "1" (effects (font (size 1.27 1.27))))
        )
        (pin passive line (at 0 -3.81 90) (length 2.794)
          (name "~" (effects (font (size 1.27 1.27))))
          (number "2" (effects (font (size 1.27 1.27))))
        )
      )
    )
    (symbol "Interface_USB:CH340C" (in_bom yes) (on_board yes)
      (property "Reference" "U" (id 0) (at -5.08 13.97 0)
        (effects (font (size 1.27 1.27)) (justify right))
      )
      (property "Value" "CH340C" (id 1) (at 1.27 13.97 0)
        (effects (font (size 1.27 1.27)) (justify left))
      )
      (property "Footprint" "Package_SO:SOIC-16_3.9x9.9mm_P1.27mm" (id 2) (at 1.27 -13.97 0)
        (effects (font (size 1.27 1.27)) (justify left) hide)
      )
      (property "Datasheet" "https://datasheet.lcsc.com/szlcsc/Jiangsu-Qin-Heng-CH340C_C84681.pdf" (id 3) (at -8.89 20.32 0)
        (effects (font (size 1.27 1.27)) hide)
      )
      (property "ki_keywords" "USB UART Serial Converter Interface" (id 4) (at 0 0 0)
        (effects (font (size 1.27 1.27)) hide)
      )
      (property "ki_description" "USB serial converter, UART, SOIC-16" (id 5) (at 0 0 0)
        (effects (font (size 1.27 1.27)) hide)
      )
      (property "ki_fp_filters" "SOIC*3.9x9.9mm*P1.27mm*" (id 6) (at 0 0 0)
        (effects (font (size 1.27 1.27)) hide)
      )
      (symbol "CH340C_0_1"
        (rectangle (start -7.62 12.7) (end 7.62 -12.7)
          (stroke (width 0.254) (type default) (color 0 0 0 0))
          (fill (type background))
        )
      )
      (symbol "CH340C_1_1"
        (pin power_in line (at 0 -15.24 90) (length 2.54)
          (name "GND" (effects (font (size 1.27 1.27))))
          (number "1" (effects (font (size 1.27 1.27))))
        )
        (pin input line (at 10.16 0 180) (length 2.54)
          (name "~{DSR}" (effects (font (size 1.27 1.27))))
          (number "10" (effects (font (size 1.27 1.27))))
        )
        (pin input line (at 10.16 -2.54 180) (length 2.54)
          (name "~{RI}" (effects (font (size 1.27 1.27))))
          (number "11" (effects (font (size 1.27 1.27))))
        )
        (pin input line (at 10.16 -5.08 180) (length 2.54)
          (name "~{DCD}" (effects (font (size 1.27 1.27))))
          (number "12" (effects (font (size 1.27 1.27))))
        )
        (pin output line (at 10.16 -7.62 180) (length 2.54)
          (name "~{DTR}" (effects (font (size 1.27 1.27))))
          (number "13" (effects (font (size 1.27 1.27))))
        )
        (pin output line (at 10.16 -10.16 180) (length 2.54)
          (name "~{RTS}" (effects (font (size 1.27 1.27))))
          (number "14" (effects (font (size 1.27 1.27))))
        )
        (pin input line (at -10.16 7.62 0) (length 2.54)
          (name "R232" (effects (font (size 1.27 1.27))))
          (number "15" (effects (font (size 1.27 1.27))))
        )
        (pin power_in line (at 0 15.24 270) (length 2.54)
          (name "VCC" (effects (font (size 1.27 1.27))))
          (number "16" (effects (font (size 1.27 1.27))))
        )
        (pin output line (at 10.16 10.16 180) (length 2.54)
          (name "TXD" (effects (font (size 1.27 1.27))))
          (number "2" (effects (font (size 1.27 1.27))))
        )
        (pin input line (at 10.16 7.62 180) (length 2.54)
          (name "RXD" (effects (font (size 1.27 1.27))))
          (number "3" (effects (font (size 1.27 1.27))))
        )
        (pin passive line (at -2.54 15.24 270) (length 2.54)
          (name "V3" (effects (font (size 1.27 1.27))))
          (number "4" (effects (font (size 1.27 1.27))))
        )
        (pin bidirectional line (at -10.16 2.54 0) (length 2.54)
          (name "UD+" (effects (font (size 1.27 1.27))))
          (number "5" (effects (font (size 1.27 1.27))))
        )
        (pin bidirectional line (at -10.16 0 0) (length 2.54)
          (name "UD-" (effects (font (size 1.27 1.27))))
          (number "6" (effects (font (size 1.27 1.27))))
        )
        (pin no_connect line (at -7.62 -7.62 0) (length 2.54) hide
          (name "NC" (effects (font (size 1.27 1.27))))
          (number "7" (effects (font (size 1.27 1.27))))
        )
        (pin no_connect line (at -7.62 -10.16 0) (length 2.54) hide
          (name "NC" (effects (font (size 1.27 1.27))))
          (number "8" (effects (font (size 1.27 1.27))))
        )
        (pin input line (at 10.16 2.54 180) (length 2.54)
          (name "~{CTS}" (effects (font (size 1.27 1.27))))
          (number "9" (effects (font (size 1.27 1.27))))
        )
      )
    )
    (symbol "Memory_EEPROM:M24C02-WMN" (in_bom yes) (on_board yes)
      (property "Reference" "U" (id 0) (at -6.35 6.35 0)
        (effects (font (size 1.27 1.27)))
      )
      (property "Value" "M24C02-WMN" (id 1) (at 7.62 6.35 0)
        (effects (font (size 1.27 1.27)))
      )
      (property "Footprint" "Package_SO:SOIC-8_3.9x4.9mm_P1.27mm" (id 2) (at 0 8.89 0)
        (effects (font (size 1.27 1.27)) hide)
      )
      (property "Datasheet" "http://www.st.com/content/ccc/resource/technical/document/datasheet/b0/d8/50/40/5a/85/49/6f/DM00071904.pdf/files/DM00071904.pdf/jcr:content/translations/en.DM00071904.pdf" (id 3) (at 1.27 -12.7 0)
        (effects (font (size 1.27 1.27)) hide)
      )
      (property "ki_keywords" "Nonvolatile Non-Volatile Memory ROM ST" (id 4) (at 0 0 0)
        (effects (font (size 1.27 1.27)) hide)
      )
      (property "ki_description" "2Kb (256x8) I2C Serial EEPROM, 2.5-5.5V, SOIC-8" (id 5) (at 0 0 0)
        (effects (font (size 1.27 1.27)) hide)
      )
      (property "ki_fp_filters" "SOIC*3.9x4.9mm*P1.27mm*" (id 6) (at 0 0 0)
        (effects (font (size 1.27 1.27)) hide)
      )
      (symbol "M24C02-WMN_0_1"
        (rectangle (start -7.62 5.08) (end 7.62 -5.08)
          (stroke (width 0.254) (type default) (color 0 0 0 0))
          (fill (type background))
        )
      )
      (symbol "M24C02-WMN_1_1"
        (pin input line (at -10.16 2.54 0) (length 2.54)
          (name "E0" (effects (font (size 1.27 1.27))))
          (number "1" (effects (font (size 1.27 1.27))))
        )
        (pin input line (at -10.16 0 0) (length 2.54)
          (name "E1" (effects (font (size 1.27 1.27))))
          (number "2" (effects (font (size 1.27 1.27))))
        )
        (pin input line (at -10.16 -2.54 0) (length 2.54)
          (name "E2" (effects (font (size 1.27 1.27))))
          (number "3" (effects (font (size 1.27 1.27))))
        )
        (pin power_in line (at 0 -7.62 90) (length 2.54)
          (name "VSS" (effects (font (size 1.27 1.27))))
          (number "4" (effects (font (size 1.27 1.27))))
        )
        (pin bidirectional line (at 10.16 2.54 180) (length 2.54)
          (name "SDA" (effects (font (size 1.27 1.27))))
          (number "5" (effects (font (size 1.27 1.27))))
        )
        (pin input line (at 10.16 0 180) (length 2.54)
          (name "SCL" (effects (font (size 1.27 1.27))))
          (number "6" (effects (font (size 1.27 1.27))))
        )
        (pin input line (at 10.16 -2.54 180) (length 2.54)
          (name "~{WC}" (effects (font (size 1.27 1.27))))
          (number "7" (effects (font (size 1.27 1.27))))
        )
        (pin power_in line (at 0 7.62 270) (length 2.54)
          (name "VCC" (effects (font (size 1.27 1.27))))
          (number "8" (effects (font (size 1.27 1.27))))
        )
      )
    )
    (symbol "power:+3V3" (power) (pin_names (offset 0)) (in_bom yes) (on_board yes)
      (property "Reference" "#PWR" (id 0) (at 0 -3.81 0)
        (effects (font (size 1.27 1.27)) hide)
      )
      (property "Value" "+3V3" (id 1) (at 0 3.556 0)
        (effects (font (size 1.27 1.27)))
      )
      (property "Footprint" "" (id 2) (at 0 0 0)
        (effects (font (size 1.27 1.27)) hide)
      )
      (property "Datasheet" "" (id 3) (at 0 0 0)
        (effects (font (size 1.27 1.27)) hide)
      )
      (property "ki_keywords" "power-flag" (id 4) (at 0 0 0)
        (effects (font (size 1.27 1.27)) hide)
      )
      (property "ki_description" "Power symbol creates a global label with name \"+3V3\"" (id 5) (at 0 0 0)
        (effects (font (size 1.27 1.27)) hide)
      )
      (symbol "+3V3_0_1"
        (polyline
          (pts
            (xy -0.762 1.27)
            (xy 0 2.54)
          )
          (stroke (width 0) (type default) (color 0 0 0 0))
          (fill (type none))
        )
        (polyline
          (pts
            (xy 0 0)
            (xy 0 2.54)
          )
          (stroke (width 0) (type default) (color 0 0 0 0))
          (fill (type none))
        )
        (polyline
          (pts
            (xy 0 2.54)
            (xy 0.762 1.27)
          )
          (stroke (width 0) (type default) (color 0 0 0 0))
          (fill (type none))
        )
      )
      (symbol "+3V3_1_1"
        (pin power_in line (at 0 0 90) (length 0) hide
          (name "+3V3" (effects (font (size 1.27 1.27))))
          (number "1" (effects (font (size 1.27 1.27))))
        )
      )
    )
    (symbol "power:+5V" (power) (pin_names (offset 0)) (in_bom yes) (on_board yes)
      (property "Reference" "#PWR" (id 0) (at 0 -3.81 0)
        (effects (font (size 1.27 1.27)) hide)
      )
      (property "Value" "+5V" (id 1) (at 0 3.556 0)
        (effects (font (size 1.27 1.27)))
      )
      (property "Footprint" "" (id 2) (at 0 0 0)
        (effects (font (size 1.27 1.27)) hide)
      )
      (property "Datasheet" "" (id 3) (at 0 0 0)
        (effects (font (size 1.27 1.27)) hide)
      )
      (property "ki_keywords" "power-flag" (id 4) (at 0 0 0)
        (effects (font (size 1.27 1.27)) hide)
      )
      (property "ki_description" "Power symbol creates a global label with name \"+5V\"" (id 5) (at 0 0 0)
        (effects (font (size 1.27 1.27)) hide)
      )
      (symbol "+5V_0_1"
        (polyline
          (pts
            (xy -0.762 1.27)
            (xy 0 2.54)
          )
          (stroke (width 0) (type default) (color 0 0 0 0))
          (fill (type none))
        )
        (polyline
          (pts
            (xy 0 0)
            (xy 0 2.54)
          )
          (stroke (width 0) (type default) (color 0 0 0 0))
          (fill (type none))
        )
        (polyline
          (pts
            (xy 0 2.54)
            (xy 0.762 1.27)
          )
          (stroke (width 0) (type default) (color 0 0 0 0))
          (fill (type none))
        )
      )
      (symbol "+5V_1_1"
        (pin power_in line (at 0 0 90) (length 0) hide
          (name "+5V" (effects (font (size 1.27 1.27))))
          (number "1" (effects (font (size 1.27 1.27))))
        )
      )
    )
    (symbol "power:GND" (power) (pin_names (offset 0)) (in_bom yes) (on_board yes)
      (property "Reference" "#PWR" (id 0) (at 0 -6.35 0)
        (effects (font (size 1.27 1.27)) hide)
      )
      (property "Value" "GND" (id 1) (at 0 -3.81 0)
        (effects (font (size 1.27 1.27)))
      )
      (property "Footprint" "" (id 2) (at 0 0 0)
        (effects (font (size 1.27 1.27)) hide)
      )
      (property "Datasheet" "" (id 3) (at 0 0 0)
        (effects (font (size 1.27 1.27)) hide)
      )
      (property "ki_keywords" "power-flag" (id 4) (at 0 0 0)
        (effects (font (size 1.27 1.27)) hide)
      )
      (property "ki_description" "Power symbol creates a global label with name \"GND\" , ground" (id 5) (at 0 0 0)
        (effects (font (size 1.27 1.27)) hide)
      )
      (symbol "GND_0_1"
        (polyline
          (pts
            (xy 0 0)
            (xy 0 -1.27)
            (xy 1.27 -1.27)
            (xy 0 -2.54)
            (xy -1.27 -1.27)
            (xy 0 -1.27)
          )
          (stroke (width 0) (type default) (color 0 0 0 0))
          (fill (type none))
        )
      )
      (symbol "GND_1_1"
        (pin power_in line (at 0 0 270) (length 0) hide
          (name "GND" (effects (font (size 1.27 1.27))))
          (number "1" (effects (font (size 1.27 1.27))))
        )
      )
    )
  )

  (junction (at 208.28 76.2) (diameter 0) (color 0 0 0 0)
    (uuid 1042b91d-4168-4793-ba43-262f15222338)
  )
  (junction (at 208.28 78.74) (diameter 0) (color 0 0 0 0)
    (uuid 1f2393fb-02d6-438a-9f89-f3aa73d66023)
  )
  (junction (at 198.12 58.42) (diameter 0) (color 0 0 0 0)
    (uuid 279fd144-529b-43f9-9c96-ddcb1882814e)
  )
  (junction (at 151.13 83.82) (diameter 0) (color 0 0 0 0)
    (uuid 320fa4a5-8945-4d2c-ac64-53bd8032a4e1)
  )
  (junction (at 87.63 82.55) (diameter 0) (color 0 0 0 0)
    (uuid 3aa6e313-7972-4b5e-a4c8-3414c36a4b92)
  )
  (junction (at 97.79 92.71) (diameter 0) (color 0 0 0 0)
    (uuid 3abdb0e3-5094-43dc-8b61-9b16f4c1cad9)
  )
  (junction (at 198.12 43.18) (diameter 0) (color 0 0 0 0)
    (uuid 8cfef7b9-f384-49d6-9827-713997abdb6c)
  )
  (junction (at 87.63 85.09) (diameter 0) (color 0 0 0 0)
    (uuid bb7cc2a0-fa88-41be-8756-4ed5d43529dc)
  )
  (junction (at 208.28 81.28) (diameter 0) (color 0 0 0 0)
    (uuid fce4beb2-a015-461e-a436-35ad4860e0fa)
  )

  (wire (pts (xy 114.3 82.55) (xy 107.95 82.55))
    (stroke (width 0) (type default) (color 0 0 0 0))
    (uuid 048b1e95-eb16-4883-bcf5-2571bfe4ba48)
  )
  (wire (pts (xy 198.12 40.64) (xy 198.12 43.18))
    (stroke (width 0) (type default) (color 0 0 0 0))
    (uuid 08b5c67b-ce4a-478b-bbc8-55f135da1414)
  )
  (wire (pts (xy 97.79 92.71) (xy 107.95 92.71))
    (stroke (width 0) (type default) (color 0 0 0 0))
    (uuid 0f8f7895-35cb-4581-ae9f-4ca05afd98e4)
  )
  (wire (pts (xy 205.74 45.72) (xy 205.74 43.18))
    (stroke (width 0) (type default) (color 0 0 0 0))
    (uuid 1051cbfc-a919-4fff-87a4-f7a8f49bae6c)
  )
  (wire (pts (xy 195.58 58.42) (xy 195.58 60.96))
    (stroke (width 0) (type default) (color 0 0 0 0))
    (uuid 17fff7fd-f6f5-404a-bde7-5c7b3e7904bc)
  )
  (wire (pts (xy 215.9 81.28) (xy 215.9 78.74))
    (stroke (width 0) (type default) (color 0 0 0 0))
    (uuid 1e89d3ea-13eb-4302-b473-aa5d55a87135)
  )
  (wire (pts (xy 198.12 58.42) (xy 198.12 60.96))
    (stroke (width 0) (type default) (color 0 0 0 0))
    (uuid 249c61d0-3181-4bfb-9c2a-53d912a25ca9)
  )
  (wire (pts (xy 205.74 43.18) (xy 198.12 43.18))
    (stroke (width 0) (type default) (color 0 0 0 0))
    (uuid 294988f1-ddec-48fe-a288-e4e280ccd287)
  )
  (wire (pts (xy 198.12 58.42) (xy 195.58 58.42))
    (stroke (width 0) (type default) (color 0 0 0 0))
    (uuid 3ae056f4-6a7e-4768-8469-f6c7c1cbd7b2)
  )
  (wire (pts (xy 205.74 53.34) (xy 205.74 54.61))
    (stroke (width 0) (type default) (color 0 0 0 0))
    (uuid 44279129-7f6c-4e13-8514-a27235eaaf8e)
  )
  (wire (pts (xy 212.09 66.04) (xy 208.28 66.04))
    (stroke (width 0) (type default) (color 0 0 0 0))
    (uuid 51176234-aab0-47b4-9bf6-79a19b50481c)
  )
  (wire (pts (xy 151.13 99.06) (xy 151.13 83.82))
    (stroke (width 0) (type default) (color 0 0 0 0))
    (uuid 568e80a7-032d-4e38-ae51-0c7702661559)
  )
  (wire (pts (xy 208.28 76.2) (xy 208.28 78.74))
    (stroke (width 0) (type default) (color 0 0 0 0))
    (uuid 5be5667a-7da8-46f6-b0cc-5311952689e8)
  )
  (wire (pts (xy 87.63 82.55) (xy 87.63 85.09))
    (stroke (width 0) (type default) (color 0 0 0 0))
    (uuid 5e15ca0e-7d6c-44fa-b0d0-fa5e423ae194)
  )
  (wire (pts (xy 97.79 92.71) (xy 97.79 90.17))
    (stroke (width 0) (type default) (color 0 0 0 0))
    (uuid 650b76f3-7af3-4f2a-80ac-e4162e3fc208)
  )
  (wire (pts (xy 97.79 95.25) (xy 97.79 92.71))
    (stroke (width 0) (type default) (color 0 0 0 0))
    (uuid 6bc13000-e3bd-45b8-bd9d-a7a7ca4bfb75)
  )
  (wire (pts (xy 187.96 68.58) (xy 187.96 62.23))
    (stroke (width 0) (type default) (color 0 0 0 0))
    (uuid 6f4f10ee-56dc-4cb8-a8d4-3061c7e21240)
  )
  (wire (pts (xy 208.28 78.74) (xy 208.28 81.28))
    (stroke (width 0) (type default) (color 0 0 0 0))
    (uuid 6f89b486-8bbe-43fb-b188-e06fc9da2233)
  )
  (wire (pts (xy 182.88 62.23) (xy 182.88 64.77))
    (stroke (width 0) (type default) (color 0 0 0 0))
    (uuid 77ecf332-2d12-423d-affc-648e60ec3f7a)
  )
  (wire (pts (xy 87.63 85.09) (xy 87.63 92.71))
    (stroke (width 0) (type default) (color 0 0 0 0))
    (uuid 822f3262-e85b-4eee-ad38-bd8267590c95)
  )
  (wire (pts (xy 198.12 43.18) (xy 198.12 58.42))
    (stroke (width 0) (type default) (color 0 0 0 0))
    (uuid 86e1e198-f825-4786-ba47-55e18794c37f)
  )
  (wire (pts (xy 161.29 68.58) (xy 158.75 68.58))
    (stroke (width 0) (type default) (color 0 0 0 0))
    (uuid 8ddd9402-7bf7-436b-948d-0c5c35ff8720)
  )
  (wire (pts (xy 187.96 62.23) (xy 182.88 62.23))
    (stroke (width 0) (type default) (color 0 0 0 0))
    (uuid 92f73f9f-03de-436a-9c8a-ff1878a8dd58)
  )
  (wire (pts (xy 87.63 80.01) (xy 87.63 82.55))
    (stroke (width 0) (type default) (color 0 0 0 0))
    (uuid 94d67f3e-4898-4ca0-8659-c954d73a6977)
  )
  (wire (pts (xy 161.29 78.74) (xy 158.75 78.74))
    (stroke (width 0) (type default) (color 0 0 0 0))
    (uuid 99470bb3-b905-4c18-b49a-b45ad9287a1c)
  )
  (wire (pts (xy 208.28 73.66) (xy 208.28 76.2))
    (stroke (width 0) (type default) (color 0 0 0 0))
    (uuid 9bee1827-b789-42bc-88bd-c409a35852b3)
  )
  (wire (pts (xy 212.09 68.58) (xy 208.28 68.58))
    (stroke (width 0) (type default) (color 0 0 0 0))
    (uuid 9c86b2fb-d2f7-463d-a049-2eadb62b0714)
  )
  (wire (pts (xy 198.12 99.06) (xy 198.12 91.44))
    (stroke (width 0) (type default) (color 0 0 0 0))
    (uuid 9e77118e-8223-45c8-aa04-cd9f668a6fd5)
  )
  (wire (pts (xy 97.79 69.85) (xy 97.79 74.93))
    (stroke (width 0) (type default) (color 0 0 0 0))
    (uuid 9ea0bb5a-1fb1-4183-84e9-90b982999428)
  )
  (wire (pts (xy 208.28 81.28) (xy 215.9 81.28))
    (stroke (width 0) (type default) (color 0 0 0 0))
    (uuid ac169ebc-e3e2-4d8e-b7cd-7456019ebb2a)
  )
  (wire (pts (xy 114.3 80.01) (xy 107.95 80.01))
    (stroke (width 0) (type default) (color 0 0 0 0))
    (uuid ad1d1183-a5cb-4338-8b74-aa2bf16acc82)
  )
  (wire (pts (xy 158.75 76.2) (xy 187.96 76.2))
    (stroke (width 0) (type default) (color 0 0 0 0))
    (uuid b68e3c30-e372-413e-b6c3-371c8de65c3d)
  )
  (wire (pts (xy 87.63 92.71) (xy 97.79 92.71))
    (stroke (width 0) (type default) (color 0 0 0 0))
    (uuid bb702799-04d1-4136-9913-db15d677cb7f)
  )
  (wire (pts (xy 151.13 83.82) (xy 148.59 83.82))
    (stroke (width 0) (type default) (color 0 0 0 0))
    (uuid bbf56449-17e7-47f5-9e88-f28a3f24d25d)
  )
  (wire (pts (xy 107.95 92.71) (xy 107.95 85.09))
    (stroke (width 0) (type default) (color 0 0 0 0))
    (uuid dfa32f98-a4bd-402e-99a2-8dc183b112be)
  )
  (wire (pts (xy 161.29 60.96) (xy 161.29 68.58))
    (stroke (width 0) (type default) (color 0 0 0 0))
    (uuid e4262a84-50b7-4026-8884-53d94cf30a4f)
  )
  (wire (pts (xy 158.75 73.66) (xy 187.96 73.66))
    (stroke (width 0) (type default) (color 0 0 0 0))
    (uuid e981f168-abbe-49a5-a29e-d572a0d4726d)
  )

  (hierarchical_label "PA9" (shape bidirectional) (at 212.09 68.58 0)
    (effects (font (size 1.27 1.27)) (justify left))
    (uuid 1db2d99a-24d1-44c6-b5a4-129b77e93baf)
  )
  (hierarchical_label "PB8" (shape input) (at 114.3 82.55 0)
    (effects (font (size 1.27 1.27)) (justify left))
    (uuid 51c2cc45-121c-4867-83e9-42cf2a418d42)
  )
  (hierarchical_label "PB9" (shape bidirectional) (at 114.3 80.01 0)
    (effects (font (size 1.27 1.27)) (justify left))
    (uuid 7c2a009d-85e4-4154-8a02-5ed6fd51921d)
  )
  (hierarchical_label "PA10" (shape bidirectional) (at 212.09 66.04 0)
    (effects (font (size 1.27 1.27)) (justify left))
    (uuid b139aaec-473f-40e8-be59-670ef4b51501)
  )

  (symbol (lib_id "power:GND") (at 205.74 54.61 0) (unit 1)
    (in_bom yes) (on_board yes) (fields_autoplaced)
    (uuid 0bdd4785-8358-44a8-9490-086d9a814815)
    (property "Reference" "#PWR046" (id 0) (at 205.74 60.96 0)
      (effects (font (size 1.27 1.27)) hide)
    )
    (property "Value" "GND" (id 1) (at 205.74 59.69 0))
    (property "Footprint" "" (id 2) (at 205.74 54.61 0)
      (effects (font (size 1.27 1.27)) hide)
    )
    (property "Datasheet" "" (id 3) (at 205.74 54.61 0)
      (effects (font (size 1.27 1.27)) hide)
    )
    (pin "1" (uuid edc6a220-0a66-44f6-91f1-47c95b962da6))
  )

  (symbol (lib_id "power:GND") (at 198.12 99.06 0) (unit 1)
    (in_bom yes) (on_board yes) (fields_autoplaced)
    (uuid 0faa49c6-8c14-4135-88ad-803b11ec84d1)
    (property "Reference" "#PWR045" (id 0) (at 198.12 105.41 0)
      (effects (font (size 1.27 1.27)) hide)
    )
    (property "Value" "GND" (id 1) (at 198.12 104.14 0))
    (property "Footprint" "" (id 2) (at 198.12 99.06 0)
      (effects (font (size 1.27 1.27)) hide)
    )
    (property "Datasheet" "" (id 3) (at 198.12 99.06 0)
      (effects (font (size 1.27 1.27)) hide)
    )
    (pin "1" (uuid 70453062-6490-4e46-b52c-328225d972ac))
  )

  (symbol (lib_id "power:+3V3") (at 198.12 40.64 0) (unit 1)
    (in_bom yes) (on_board yes) (fields_autoplaced)
    (uuid 1ac5048d-b0c0-4de3-9895-a616185014c6)
    (property "Reference" "#PWR044" (id 0) (at 198.12 44.45 0)
      (effects (font (size 1.27 1.27)) hide)
    )
    (property "Value" "+3V3" (id 1) (at 198.12 35.56 0))
    (property "Footprint" "" (id 2) (at 198.12 40.64 0)
      (effects (font (size 1.27 1.27)) hide)
    )
    (property "Datasheet" "" (id 3) (at 198.12 40.64 0)
      (effects (font (size 1.27 1.27)) hide)
    )
    (pin "1" (uuid 8be08611-7208-4e21-90b4-0a7bd788536a))
  )

  (symbol (lib_id "Interface_USB:CH340C") (at 198.12 76.2 0) (unit 1)
    (in_bom yes) (on_board yes) (fields_autoplaced)
    (uuid 1fd9790a-5e5b-4f5e-8357-4f31651dbddd)
    (property "Reference" "U8" (id 0) (at 200.1394 91.44 0)
      (effects (font (size 1.27 1.27)) (justify left))
    )
    (property "Value" "CH340C" (id 1) (at 200.1394 93.98 0)
      (effects (font (size 1.27 1.27)) (justify left))
    )
    (property "Footprint" "Package_SO:SOIC-16_3.9x9.9mm_P1.27mm" (id 2) (at 199.39 90.17 0)
      (effects (font (size 1.27 1.27)) (justify left) hide)
    )
    (property "Datasheet" "https://datasheet.lcsc.com/szlcsc/Jiangsu-Qin-Heng-CH340C_C84681.pdf" (id 3) (at 189.23 55.88 0)
      (effects (font (size 1.27 1.27)) hide)
    )
    (pin "1" (uuid 73a2f9d8-8d4d-4a05-9c1c-3b135bae39c0))
    (pin "10" (uuid b0b9cd49-9c42-426d-9b91-8d0a9490a96f))
    (pin "11" (uuid f85fa9e5-1155-42f7-a4d1-df32decdebc7))
    (pin "12" (uuid e7841aed-e4de-4b72-9775-76e69a49d568))
    (pin "13" (uuid a34e3cff-6c50-4a94-8522-adda0ca6eae0))
    (pin "14" (uuid 592d08b6-6ab0-4961-bff5-b0699ae0a471))
    (pin "15" (uuid d27b8a03-2851-40b5-b13d-cb8e50680075))
    (pin "16" (uuid 5d8ba9d6-3afa-48e3-8fab-8118819648af))
    (pin "2" (uuid fcb8fb15-28d7-4603-a2e2-61c39a934c19))
    (pin "3" (uuid b836b39b-424e-4b3b-8dd0-9505d607af83))
    (pin "4" (uuid 876adf5e-9e78-4269-9679-8a0ae1ce0dcf))
    (pin "5" (uuid a5ea7530-e258-4c85-8803-b901cc4d59fc))
    (pin "6" (uuid 2c6cb2d7-5f16-47e0-a74f-2af92afff58d))
    (pin "7" (uuid 45b9ad65-47a5-4b6f-a59a-58ac265e32ff))
    (pin "8" (uuid b4f1a5b7-6154-4567-9ecf-87e6abf75816))
    (pin "9" (uuid e78a8e50-fd9d-427c-ab3a-20bcf15b2fb7))
  )

  (symbol (lib_id "Connector:TestPoint") (at 161.29 78.74 270) (unit 1)
    (in_bom yes) (on_board yes)
    (uuid 236a3591-d0b6-44d1-b6ff-8ded0c7dd38b)
    (property "Reference" "TP4" (id 0) (at 165.1 81.28 90))
    (property "Value" "TestPoint" (id 1) (at 165.1 83.82 90))
    (property "Footprint" "TestPoint:TestPoint_THTPad_D2.5mm_Drill1.2mm" (id 2) (at 161.29 83.82 0)
      (effects (font (size 1.27 1.27)) hide)
    )
    (property "Datasheet" "~" (id 3) (at 161.29 83.82 0)
      (effects (font (size 1.27 1.27)) hide)
    )
    (pin "1" (uuid 1fd3fe81-cfe6-47f9-8761-fb30b0dc545d))
  )

  (symbol (lib_id "power:+5V") (at 161.29 60.96 0) (mirror y) (unit 1)
    (in_bom yes) (on_board yes) (fields_autoplaced)
    (uuid 29b4827a-dfe6-4f27-ac0c-d037f4868096)
    (property "Reference" "#PWR042" (id 0) (at 161.29 64.77 0)
      (effects (font (size 1.27 1.27)) hide)
    )
    (property "Value" "+5V" (id 1) (at 161.29 55.88 0))
    (property "Footprint" "" (id 2) (at 161.29 60.96 0)
      (effects (font (size 1.27 1.27)) hide)
    )
    (property "Datasheet" "" (id 3) (at 161.29 60.96 0)
      (effects (font (size 1.27 1.27)) hide)
    )
    (pin "1" (uuid 939f5d50-8782-4065-9265-133e3b3a4079))
  )

  (symbol (lib_id "power:GND") (at 97.79 95.25 0) (mirror y) (unit 1)
    (in_bom yes) (on_board yes) (fields_autoplaced)
    (uuid 48eb2018-ac3b-4b19-b069-537e9d93391a)
    (property "Reference" "#PWR040" (id 0) (at 97.79 101.6 0)
      (effects (font (size 1.27 1.27)) hide)
    )
    (property "Value" "GND" (id 1) (at 97.79 100.33 0))
    (property "Footprint" "" (id 2) (at 97.79 95.25 0)
      (effects (font (size 1.27 1.27)) hide)
    )
    (property "Datasheet" "" (id 3) (at 97.79 95.25 0)
      (effects (font (size 1.27 1.27)) hide)
    )
    (pin "1" (uuid c0218729-6a69-4c27-b351-d37b49b0a114))
  )

  (symbol (lib_id "power:GND") (at 182.88 64.77 0) (unit 1)
    (in_bom yes) (on_board yes) (fields_autoplaced)
    (uuid 67c6c0d1-45d3-408a-9e2e-571a1dd06511)
    (property "Reference" "#PWR043" (id 0) (at 182.88 71.12 0)
      (effects (font (size 1.27 1.27)) hide)
    )
    (property "Value" "GND" (id 1) (at 182.88 69.85 0))
    (property "Footprint" "" (id 2) (at 182.88 64.77 0)
      (effects (font (size 1.27 1.27)) hide)
    )
    (property "Datasheet" "" (id 3) (at 182.88 64.77 0)
      (effects (font (size 1.27 1.27)) hide)
    )
    (pin "1" (uuid 3c979381-6c6f-4c78-9b55-c82377641bb3))
  )

  (symbol (lib_id "Device:C") (at 205.74 49.53 0) (unit 1)
    (in_bom yes) (on_board yes) (fields_autoplaced)
    (uuid 71979b75-66f4-4bdd-8fcb-4563039304ad)
    (property "Reference" "C14" (id 0) (at 209.55 48.2599 0)
      (effects (font (size 1.27 1.27)) (justify left))
    )
    (property "Value" "0.1u" (id 1) (at 209.55 50.7999 0)
      (effects (font (size 1.27 1.27)) (justify left))
    )
    (property "Footprint" "Capacitor_SMD:C_0402_1005Metric_Pad0.74x0.62mm_HandSolder" (id 2) (at 206.7052 53.34 0)
      (effects (font (size 1.27 1.27)) hide)
    )
    (property "Datasheet" "~" (id 3) (at 205.74 49.53 0)
      (effects (font (size 1.27 1.27)) hide)
    )
    (pin "1" (uuid ea9d37c5-68f6-4d3f-884a-1a658ff2a92f))
    (pin "2" (uuid 130055e7-dc86-4e12-8f5b-b1ec0ee2b884))
  )

  (symbol (lib_id "Memory_EEPROM:M24C02-WMN") (at 97.79 82.55 0) (unit 1)
    (in_bom yes) (on_board yes) (fields_autoplaced)
    (uuid 896391fa-77aa-4617-be63-4c92c9128a73)
    (property "Reference" "U7" (id 0) (at 99.8094 72.39 0)
      (effects (font (size 1.27 1.27)) (justify left))
    )
    (property "Value" "M24C02-WMN" (id 1) (at 99.8094 74.93 0)
      (effects (font (size 1.27 1.27)) (justify left))
    )
    (property "Footprint" "Package_SO:SOIC-8_3.9x4.9mm_P1.27mm" (id 2) (at 97.79 73.66 0)
      (effects (font (size 1.27 1.27)) hide)
    )
    (property "Datasheet" "http://www.st.com/content/ccc/resource/technical/document/datasheet/b0/d8/50/40/5a/85/49/6f/DM00071904.pdf/files/DM00071904.pdf/jcr:content/translations/en.DM00071904.pdf" (id 3) (at 99.06 95.25 0)
      (effects (font (size 1.27 1.27)) hide)
    )
    (pin "1" (uuid 3d92c55c-1734-42df-b448-2eee86d15983))
    (pin "2" (uuid 92529218-3086-4e38-a5d7-361f20edc13a))
    (pin "3" (uuid 40af157d-bec1-489e-8581-29ec391f5c92))
    (pin "4" (uuid 19a78422-b95d-4f86-b628-f6242f9aacfd))
    (pin "5" (uuid 161f5455-8297-4c70-b65c-7a745abba5c6))
    (pin "6" (uuid c2f82502-a672-445f-b0f1-8868bd6c28f2))
    (pin "7" (uuid 30304e2e-fae0-4942-8805-94df7afa183a))
    (pin "8" (uuid 2859838c-f7b0-4be7-9045-7fdc963d3d85))
  )

  (symbol (lib_id "power:GND") (at 151.13 99.06 0) (mirror y) (unit 1)
    (in_bom yes) (on_board yes) (fields_autoplaced)
    (uuid 9311b308-8015-47dc-af00-ca43cb418a95)
    (property "Reference" "#PWR041" (id 0) (at 151.13 105.41 0)
      (effects (font (size 1.27 1.27)) hide)
    )
    (property "Value" "GND" (id 1) (at 151.13 104.14 0))
    (property "Footprint" "" (id 2) (at 151.13 99.06 0)
      (effects (font (size 1.27 1.27)) hide)
    )
    (property "Datasheet" "" (id 3) (at 151.13 99.06 0)
      (effects (font (size 1.27 1.27)) hide)
    )
    (pin "1" (uuid 2efc3b09-c511-4b56-8f81-340a57fcb468))
  )

  (symbol (lib_id "Connector:USB_B_Micro") (at 151.13 73.66 0) (unit 1)
    (in_bom yes) (on_board yes) (fields_autoplaced)
    (uuid cc89ab19-01d9-4377-82c2-d815ee737057)
    (property "Reference" "J5" (id 0) (at 144.78 72.3899 0)
      (effects (font (size 1.27 1.27)) (justify right))
    )
    (property "Value" "USB_B_Micro" (id 1) (at 144.78 74.9299 0)
      (effects (font (size 1.27 1.27)) (justify right))
    )
    (property "Footprint" "Connector_USB:USB_Micro-B_Amphenol_10118194_Horizontal" (id 2) (at 154.94 74.93 0)
      (effects (font (size 1.27 1.27)) hide)
    )
    (property "Datasheet" "~" (id 3) (at 154.94 74.93 0)
      (effects (font (size 1.27 1.27)) hide)
    )
    (pin "1" (uuid f9812972-dbd2-442c-8c67-d1345c54175e))
    (pin "2" (uuid 3b3579fd-db9c-4181-9dd5-5621b53ad36e))
    (pin "3" (uuid e9f8fa10-c0ad-487c-b5e6-01f3095dbba9))
    (pin "4" (uuid 3a2d21db-b1ac-4a8c-88c7-8a6bbb1f8636))
    (pin "5" (uuid 2c2fd77c-c532-412a-9241-de8ac27d8090))
    (pin "6" (uuid 180bf9a1-c527-4b93-912f-72ee000c280e))
  )

  (symbol (lib_id "power:+3V3") (at 97.79 69.85 0) (unit 1)
    (in_bom yes) (on_board yes) (fields_autoplaced)
    (uuid ded8d1e4-a756-45fb-b900-11912758cb96)
    (property "Reference" "#PWR039" (id 0) (at 97.79 73.66 0)
      (effects (font (size 1.27 1.27)) hide)
    )
    (property "Value" "+3V3" (id 1) (at 97.79 64.77 0))
    (property "Footprint" "" (id 2) (at 97.79 69.85 0)
      (effects (font (size 1.27 1.27)) hide)
    )
    (property "Datasheet" "" (id 3) (at 97.79 69.85 0)
      (effects (font (size 1.27 1.27)) hide)
    )
    (pin "1" (uuid c5fbce78-3c5b-408f-b2d9-643f163d97bd))
  )

  (symbol (lib_id "power:+3V3") (at 215.9 78.74 0) (unit 1)
    (in_bom yes) (on_board yes) (fields_autoplaced)
    (uuid efaff35f-5cc6-41eb-91d3-01306138b008)
    (property "Reference" "#PWR047" (id 0) (at 215.9 82.55 0)
      (effects (font (size 1.27 1.27)) hide)
    )
    (property "Value" "+3V3" (id 1) (at 215.9 73.66 0))
    (property "Footprint" "" (id 2) (at 215.9 78.74 0)
      (effects (font (size 1.27 1.27)) hide)
    )
    (property "Datasheet" "" (id 3) (at 215.9 78.74 0)
      (effects (font (size 1.27 1.27)) hide)
    )
    (pin "1" (uuid 0dbed821-309c-452c-93ff-73f5220a50cb))
  )
)
