Comment,Designator,Footprint,LCSC
Conn_01x33_Female,"J2,J3",PinSocket_1x33_P2.54mm_Vertical,
USB_B_Micro,J5,USB_Micro-B_Amphenol_10118194_Horizontal,C132563
M24C02-WMN,U7,SOIC-8_3.9x4.9mm_P1.27mm,C7562
CH340C,U8,SOIC-16_3.9x9.9mm_P1.27mm,C84681
Battery Cell,BT1,BatteryHolder_Keystone_1042_1x18650,
TPS54331,U2,SOIC127P599X175-8N,
68.1k,R4,R_0603_1608Metric_Pad0.98x0.95mm_HandSolder,
CHT11,U6,Aosong_DHT11_5.5x12.0_P2.54mm,
LED,D2,LED_0603_1608Metric_Pad1.05x0.95mm_HandSolder,
29.4k,R7,R_0603_1608Metric_Pad0.98x0.95mm_HandSolder,
DW01A-G,U3,SOT23-6,
3.24k,R11,R_0603_1608Metric_Pad0.98x0.95mm_HandSolder,
LED,D1,LED_0805_2012Metric_Pad1.15x1.40mm_HandSolder,
1k,R6,R_0603_1608Metric_Pad0.98x0.95mm_HandSolder,
TestPoint,TP1,TestPoint_Pad_1.0x1.0mm,
100,R12,R_0603_1608Metric_Pad0.98x0.95mm_HandSolder,
0,R9,R_0603_1608Metric_Pad0.98x0.95mm_HandSolder,
DIODE,D4,D_SOD-123,
TP4056,U1,SOP127P600X175-9N,
TestPoint,TP2,TestPoint_Pad_1.0x1.0mm,
4.7u,C3,C_0805_2012Metric_Pad1.18x1.45mm_HandSolder,
6.8u,L1,L_6.3x6.3_H3,
0.01u,C6,C_0805_2012Metric_Pad1.18x1.45mm_HandSolder,
0.01u,C4,C_0805_2012Metric_Pad1.18x1.45mm_HandSolder,
0.1u,C1,C_0402_1005Metric_Pad0.74x0.62mm_HandSolder,
TestPoint,TP3,TestPoint_Pad_1.0x1.0mm,
1.2k,R5,R_0603_1608Metric_Pad0.98x0.95mm_HandSolder,
47p,C8,C_0603_1608Metric_Pad1.08x0.95mm_HandSolder,
B340,D3,D_SMC,
LMT85LP,U5,LMT85LP,
Conn_01x33_Female,J1,PinHeader_1x33_P2.54mm_Vertical,
10u,C12,C_0805_2012Metric_Pad1.18x1.45mm_HandSolder,
47u,C9,C_0805_2012Metric_Pad1.18x1.45mm_HandSolder,
FS8205A,U4,SOT95P280X145-6N,
1000p,C7,C_0402_1005Metric_Pad0.74x0.62mm_HandSolder,
Conn_01x33_Female,J4,PinHeader_1x33_P2.54mm_Vertical,
332,R3,R_0603_1608Metric_Pad0.98x0.95mm_HandSolder,
100,R8,R_0603_1608Metric_Pad0.98x0.95mm_HandSolder,
10.2k,R10,R_0603_1608Metric_Pad0.98x0.95mm_HandSolder,
TestPoint,TP4,TestPoint_THTPad_D2.5mm_Drill1.2mm,
0.1u,C13,C_0402_1005Metric_Pad0.74x0.62mm_HandSolder,
47u,C11,C_0805_2012Metric_Pad1.18x1.45mm_HandSolder,
QM6015D,Q1,TSOT-23-6_HandSoldering,
1k,R2,R_0603_1608Metric_Pad0.98x0.95mm_HandSolder,
4.7u,C2,C_0805_2012Metric_Pad1.18x1.45mm_HandSolder,
0.1u,C10,C_0402_1005Metric_Pad0.74x0.62mm_HandSolder,
1k,R1,R_0603_1608Metric_Pad0.98x0.95mm_HandSolder,
4.7K,R13,R_0603_1608Metric_Pad0.98x0.95mm_HandSolder,
0.1u,C14,C_0402_1005Metric_Pad0.74x0.62mm_HandSolder,
0.1u,C5,C_0402_1005Metric_Pad0.74x0.62mm_HandSolder,
